<?xml version="1.0" encoding="utf-8"?>
<!-- Generator: Adobe Illustrator 23.1.0, SVG Export Plug-In . SVG Version: 6.00 Build 0)  -->
<svg version="1.1" id="Layer_1" xmlns="http://www.w3.org/2000/svg" xmlns:xlink="http://www.w3.org/1999/xlink" x="0px" y="0px"
	 viewBox="0 0 512 512" style="enable-background:new 0 0 512 512;" xml:space="preserve">
<style type="text/css">
	.st0{fill:#E6B517;}
	.st1{fill:#CECECE;}
	.st2{fill:#F99D88;}
	.st3{fill:#FAD4C6;}
</style>
<path class="st0" d="M492.6,458l-146.4,22l-146.4-22c0-27.7,0-375.8,0-404l146.4-22l146.4,22V458z"/>
<g>
	<path class="st1" d="M492.6,54H199.8c0-0.3,0-0.5,0-0.7c0-24.8,20.3-45,45-45h202.7c24.8,0,45,20.3,45,45L492.6,54L492.6,54z"/>
	<path class="st1" d="M492.6,458.7c0,24.8-20.3,45-45,45H244.8c-24.8,0-45-20.3-45-45c0-0.2,0-0.4,0-0.7h292.8L492.6,458.7
		L492.6,458.7z"/>
</g>
<g>
	<path class="st2" d="M363.5,377.4l-32.7-1.6l-1.6-32.7c9.5-9.5,24.8-9.5,34.3,0C373,352.6,373,368,363.5,377.4z"/>
	<path class="st2" d="M329.2,343.2l-32.7-1.6l-1.6-32.7c9.5-9.5,24.8-9.5,34.3,0C338.7,318.4,338.7,333.7,329.2,343.2z"/>
	<path class="st2" d="M294.9,308.9l-32.7-1.6l-1.6-32.7c9.5-9.5,24.8-9.5,34.3,0C304.4,284.1,304.4,299.4,294.9,308.9z"/>
</g>
<path class="st3" d="M260.7,274.6L362,173.3c9.5-9.5,9.5-24.8,0-34.3s-24.8-9.5-34.3,0c0,0-141.5,141.5-163.9,163.9
	c-23,23-32.5,54.3-27.8,84.2L19.4,503.7h161.3l36-36c29.9,4.7,61.2-4.8,84.2-27.8c25.7-25.7,62.6-62.6,62.6-62.6L260.7,274.6z"/>
<path d="M372.8,197.9c-3.9,2.4-5.1,7.5-2.7,11.4c1.6,2.5,4.3,3.9,7,3.9c1.5,0,3-0.4,4.3-1.2c20-12.4,32-33.8,32-57.3
	c0-37.1-30.2-67.2-67.2-67.2c-23.6,0-45.8,12.6-57.9,33c-2.3,3.9-1,9,2.9,11.3c3.9,2.3,9,1,11.3-2.9c9.1-15.3,25.8-24.9,43.7-24.9
	c28,0,50.7,22.8,50.7,50.7C396.9,172.4,387.9,188.5,372.8,197.9z"/>
<path d="M447.5,0H244.8c-29.4,0-53.3,23.9-53.3,53.3v166.9c0,4.6,3.7,8.3,8.3,8.3s8.3-3.7,8.3-8.3v-158h276.3v387.5H329.6
	c-4.6,0-8.3,3.7-8.3,8.3s3.7,8.3,8.3,8.3h153.9c-3.5,16.7-18.3,29.2-36,29.2H244.8c-4.6,0-8.3,3.7-8.3,8.3s3.7,8.3,8.3,8.3h202.7
	c29.4,0,53.3-23.9,53.3-53.3V53.3C500.8,23.9,476.9,0,447.5,0z M244.8,16.5h202.7c17.7,0,32.5,12.6,36,29.2H208.8
	C212.3,29.1,227.1,16.5,244.8,16.5z"/>
<path d="M369.3,383.3c6.1-6.1,9.5-14.3,9.5-23c0-8.7-3.4-16.8-9.5-23c-6.8-6.8-15.9-10-24.8-9.4c0.5-8.9-2.6-18-9.4-24.8
	c-6.1-6.1-14.3-9.5-23-9.5c-0.6,0-1.2,0-1.8,0.1c0.5-8.9-2.7-18-9.5-24.8c-4.1-4.1-9-6.9-14.3-8.3l81.3-81.3
	c12.7-12.7,12.7-33.3,0-46s-33.3-12.7-46,0L158,297.1c-23.4,23.4-34.4,54.9-30.7,87.1L13.6,497.9c-3.2,3.2-3.2,8.5,0,11.7
	c1.6,1.6,3.7,2.4,5.8,2.4c2.1,0,4.2-0.8,5.8-2.4L141.9,393c1.9-1.9,2.7-4.5,2.3-7.1c-4.5-28.4,4.8-56.5,25.5-77.1l163.9-163.9
	c6.2-6.2,16.4-6.2,22.6,0c6.2,6.2,6.2,16.4,0,22.6L254.8,268.8c-1.6,1.6-2.4,3.7-2.4,5.8s0.8,4.2,2.4,5.8c3.2,3.2,8.5,3.2,11.7,0
	c6.2-6.2,16.4-6.2,22.6,0c6.2,6.2,6.2,16.4,0,22.6c-1.6,1.6-2.4,3.7-2.4,5.8s0.8,4.2,2.4,5.8c3.2,3.2,8.5,3.2,11.7,0
	c6.2-6.2,16.4-6.2,22.6,0c6.2,6.2,6.2,16.4,0,22.6c-1.6,1.6-2.4,3.7-2.4,5.8s0.8,4.2,2.4,5.8c3.2,3.2,8.5,3.2,11.7,0
	c6.2-6.2,16.4-6.2,22.6,0c6.2,6.2,6.2,16.4,0,22.6l-62.6,62.6c-20.6,20.6-48.7,29.9-77.1,25.5c-2.6-0.4-5.3,0.5-7.1,2.3l-36,36
	c-3.2,3.2-3.2,8.5,0,11.7c3.2,3.2,8.5,3.2,11.7,0l33.1-33.1c32.2,3.8,63.7-7.3,87.1-30.7L369.3,383.3z"/>
</svg>
