<?xml version="1.0" encoding="utf-8"?>
<!-- Generator: Adobe Illustrator 23.1.0, SVG Export Plug-In . SVG Version: 6.00 Build 0)  -->
<svg version="1.1" id="Layer_1" xmlns="http://www.w3.org/2000/svg" xmlns:xlink="http://www.w3.org/1999/xlink" x="0px" y="0px"
	 viewBox="0 0 512 512" style="enable-background:new 0 0 512 512;" xml:space="preserve">
<style type="text/css">
	.st0{fill:#059E8C;}
	.st1{fill:#057866;}
	.st2{fill:#EFC03C;}
	.st3{fill:#1E81CE;}
	.st4{fill:#057866;stroke:#057866;stroke-miterlimit:10;}
	.st5{fill:#898890;}
	.st6{fill:#E6E7E8;}
	.st7{fill:#787680;}
	.st8{fill:#D1D3D4;}
</style>
<g id="Online_Order-Smartphone">
	<path class="st0" d="M176,24h160c17.7,0,32,14.3,32,32v304c0,17.7-14.3,32-32,32H176c-17.7,0-32-14.3-32-32V56
		C144,38.3,158.3,24,176,24z"/>
	<path class="st1" d="M432,448v32c0,4.4-3.6,8-8,8H184c-4.4,0-8-3.6-8-8v-32c0-4.4,3.6-8,8-8h240C428.4,440,432,443.6,432,448z"/>
	<path class="st1" d="M208,328c0,13.3-10.7,24-24,24h-40v-16h24c13.3,0,24-10.7,24-24c0-2.4-0.4-4.7-1-7
		C201.1,308.1,208,317.4,208,328z"/>
	<path class="st1" d="M208,280c0,6.4-2.5,12.5-7,17c-3,3-6.7,5.1-10.7,6.2C186.7,294,177.8,288,168,288c13.3,0,24-10.7,24-24
		c0-2.4-0.4-4.7-1-7C201.1,260.1,208,269.4,208,280z"/>
	<path class="st1" d="M168,240c13.3,0,24-10.7,24-24c0-2.4-0.4-4.7-1-7c12.7,3.9,19.8,17.3,16,29.9c-1.1,3.8-3.2,7.2-6,10
		c-3,3-6.7,5.1-10.7,6.2C186.7,246,177.8,240,168,240z"/>
	<path class="st1" d="M345.4,262.6c-2.7-2.7-5-5.9-6.6-9.4c4.1,1.9,8.6,2.9,13.1,2.9h16v16C359.5,272,351.4,268.6,345.4,262.6z"/>
	<path class="st2" d="M312,24v16c0,8.8-7.2,16-16,16h-80c-8.8,0-16-7.2-16-16V24H312z"/>
	<g>
		<path class="st2" d="M168,240c13.3,0,24,10.7,24,24c0,13.3-10.7,24-24,24h-48c-13.3,0-24-10.7-24-24c0-13.3,10.7-24,24-24H168z"/>
		<path class="st2" d="M168,288c13.3,0,24,10.7,24,24s-10.7,24-24,24h-48c-13.3,0-24-10.7-24-24s10.7-24,24-24H168z"/>
		<path class="st2" d="M168,192c13.3,0,24,10.7,24,24s-10.7,24-24,24h-48c-13.3,0-24-10.7-24-24s10.7-24,24-24H168z"/>
		<circle class="st2" cx="120" cy="168" r="24"/>
		<path class="st2" d="M368,360V256h-16c-17.7,0-32-14.3-32-32s14.3-32,32-32h32c17.7,0,32,14.3,32,32v168l-8,48H208l-16-48h144
			C353.7,392,368,377.7,368,360z"/>
	</g>
	<path class="st3" d="M248,256h16v16h-16V256z"/>
	<path class="st3" d="M280,256h16v16h-16V256z"/>
	<path class="st3" d="M216,256h16v16h-16V256z"/>
	<path class="st1" d="M212,176l8,16h-12v-16H212z"/>
	<path class="st1" d="M295.2,160c-0.8-3.9-2.2-7.6-4.1-11.1c5.1,2.7,9.5,6.5,12.9,11.1H295.2z"/>
	<path class="st4" d="M336,176v16h-20.2L304,216h-64l-8-16h56l11.8-24H336z"/>
	<path class="st1" d="M280,136c-3.8-2.9-8.2-5.1-12.8-6.4c1.4-1,3.1-1.6,4.8-1.6C276.4,128,280,131.6,280,136z"/>
	<path class="st5" d="M296,168h7.8L288,200h-64l-16-32h8H296z"/>
	<path class="st6" d="M296,168h-80c0-22.1,17.9-40,40-40S296,145.9,296,168z"/>
	<path class="st7" d="M192,160h128v16H192V160z"/>
	<path class="st8" d="M256,112L256,112c4.4,0,8,3.6,8,8l0,0c0,4.4-3.6,8-8,8l0,0c-4.4,0-8-3.6-8-8l0,0C248,115.6,251.6,112,256,112z
		"/>
</g>
</svg>
