<?xml version="1.0" encoding="utf-8"?>
<!-- Generator: Adobe Illustrator 23.1.0, SVG Export Plug-In . SVG Version: 6.00 Build 0)  -->
<svg version="1.1" id="Capa_1" xmlns="http://www.w3.org/2000/svg" xmlns:xlink="http://www.w3.org/1999/xlink" x="0px" y="0px"
	 viewBox="0 0 512 512" style="enable-background:new 0 0 512 512;" xml:space="preserve">
<style type="text/css">
	.st0{fill:#811600;}
	.st1{fill:#E6B517;}
	.st2{fill:#E5E5E5;}
</style>
<g>
	<path class="st0" d="M415.1,326.7l-0.2,45c-102.8-36.4-215-36.4-317.8,0l-0.2-0.8v-44.2c1.9,0,3.9-0.3,5.7-0.9
		c99.4-33.8,207.3-33.8,306.7,0C411.2,326.4,413.1,326.7,415.1,326.7z"/>
	<path class="st0" d="M96.9,212.8v-45.3c1.9,0,3.9-0.3,5.7-0.9c99.4-33.8,207.3-33.8,306.7,0c1.8,0.6,3.8,1,5.7,0.9v0.1l-0.2,45.2
		c-102.8-36.5-215-36.5-317.8,0C97,212.8,97,212.8,96.9,212.8L96.9,212.8z"/>
</g>
<g>
	<path class="st1" d="M432.8,412.5V468c0,9.8-8,17.6-17.7,17.6c-2,0-3.9-0.3-5.7-1c-99.4-33.8-207.3-33.8-306.7,0
		c-9.2,3.2-19.3-1.7-22.5-10.9c-0.6-1.8-1-3.8-1-5.7v-71.3c0.1-11.3,7.2-21.3,17.9-25.1c102.8-36.4,215-36.4,317.8,0
		c10.7,3.7,17.8,13.8,17.9,25.1L432.8,412.5L432.8,412.5z"/>
	<path class="st1" d="M432.8,253.6V309c0,9.7-7.8,17.6-17.5,17.6c-0.1,0-0.1,0-0.2,0c-1.9,0-3.9-0.3-5.7-0.9
		c-99.4-33.8-207.3-33.8-306.7,0c-1.8,0.6-3.8,1-5.7,0.9c-9.7,0.1-17.7-7.7-17.7-17.4c0-0.1,0-0.1,0-0.2v-71.2
		c0.1-11.2,7.1-21.2,17.7-25c0.1-0.1,0.1-0.1,0.2-0.1c102.8-36.5,215-36.5,317.8,0c10.7,3.7,17.8,13.8,17.9,25.1L432.8,253.6
		L432.8,253.6z"/>
	<path class="st1" d="M432.8,94.6V150c0,9.7-7.8,17.5-17.5,17.6c-0.1,0-0.2,0-0.3,0c-1.9,0-3.9-0.3-5.7-0.9
		c-99.4-33.8-207.3-33.8-306.7,0c-1.8,0.6-3.8,1-5.7,0.9c-9.7,0.1-17.6-7.6-17.7-17.3c0-0.1,0-0.2,0-0.3V78.8
		c0.1-11.3,7.2-21.4,17.9-25.1c102.8-36.4,215-36.4,317.8,0c10.7,3.8,17.8,13.8,17.9,25.1L432.8,94.6L432.8,94.6z"/>
</g>
<g>
	<polygon class="st2" points="79.2,94.6 79.2,140.2 78.8,140.2 35,157.6 8.5,122.3 	"/>
	<polygon class="st2" points="79.2,253.6 79.2,299.2 78.8,299.2 35,316.7 8.5,281.3 	"/>
	<polygon class="st2" points="79.2,412.5 79.2,458.1 78.8,458.1 35,475.6 8.5,440.3 	"/>
	<polygon class="st2" points="503.5,440.3 477,475.6 433.2,458.1 432.8,458.1 432.8,412.5 	"/>
	<polygon class="st2" points="503.5,281.3 477,316.7 433.2,299.2 432.8,299.2 432.8,253.6 	"/>
	<polygon class="st2" points="503.5,122.3 477,157.6 433.2,140.2 432.8,140.2 432.8,94.6 	"/>
</g>
<g>
	<path class="st0" d="M117.3,252.2l-5.5-16.2c46.4-15.7,95.1-23.7,144.2-23.7v17C208.8,229.3,162,237,117.3,252.2z"/>
	<path class="st0" d="M300.4,390.6c-28.6-3-57.5-3.1-86.1-0.3l-1.6-17c29.8-2.9,59.8-2.8,89.6,0.4L300.4,390.6z"/>
	<path class="st0" d="M394.7,93.1C350,78,303.2,70.2,256,70.3v-17c49,0,97.7,8,144.2,23.7L394.7,93.1z"/>
</g>
<path d="M256,229.3v-17c-49,0-97.7,8-144.2,23.7l5.5,16.2C162,237.1,208.8,229.3,256,229.3z"/>
<path d="M70.7,396.8v9.9L5.4,432.4c-4.4,1.7-6.5,6.7-4.8,11.1c0.3,0.7,0.7,1.4,1.1,2l26.5,35.3c2.3,3.1,6.4,4.2,10,2.8L71,470.4
	c0.6,7.5,4.5,14.4,10.6,18.8c6.9,4.9,15.8,6.2,23.8,3.5c97.7-33.1,203.5-33.1,301.2,0c8,2.7,16.9,1.4,23.8-3.5
	c6.1-4.4,10-11.2,10.6-18.8l32.8,13.1c3.6,1.4,7.7,0.3,10-2.8l26.5-35.3c2.8-3.8,2.1-9.1-1.7-11.9c-0.6-0.5-1.3-0.8-2-1.1
	l-65.3-25.7v-10c-0.1-12.6-6.9-24.3-17.9-30.5l0.1-32.6c3.8-1.2,7.2-3.3,10.1-6.1c4.3-4.3,6.9-10,7.5-16.1l32.7,13.1
	c3.6,1.4,7.7,0.3,10-2.8l26.5-35.4c2.8-3.8,2-9.1-1.7-11.9c-0.6-0.5-1.3-0.8-2-1.1l-65.3-25.6v-10c-0.1-12.6-6.9-24.3-17.9-30.4
	l0.1-32.8c3.8-1.2,7.2-3.3,10.1-6.1c4.3-4.3,6.9-9.9,7.4-16l32.7,13.1c1,0.4,2.1,0.6,3.2,0.6c2.7,0,5.2-1.3,6.8-3.4l26.5-35.4
	c2.8-3.8,2.1-9.1-1.7-11.9c-0.6-0.5-1.3-0.8-2-1.1l-65.3-25.6v-10c-0.1-14.9-9.5-28.2-23.6-33.2C313.1,8.7,198.9,8.7,94.2,45.6
	c-14,5-23.4,18.3-23.5,33.2v9.9L5.4,114.3c-4.4,1.7-6.5,6.7-4.8,11c0.3,0.7,0.7,1.4,1.1,2l26.5,35.4c1.6,2.1,4.1,3.4,6.8,3.4
	c1.1,0,2.2-0.2,3.2-0.6l32.7-13.1c0.5,6,3.1,11.7,7.4,16c2.8,2.8,6.3,4.9,10.1,6.1v32.9c-10.9,6.2-17.7,17.8-17.7,30.4v9.9
	L5.4,273.4c-4.4,1.7-6.5,6.7-4.8,11c0.3,0.7,0.7,1.4,1.1,2l26.5,35.4c2.3,3.1,6.4,4.2,10,2.8l32.7-13.1c0.5,6.1,3.2,11.8,7.5,16.1
	c2.8,2.8,6.3,4.8,10,6.1v32.7C77.5,372.6,70.7,384.2,70.7,396.8z M70.7,452.2l-32.7,13.1l-15.9-21.1L70.7,425L70.7,452.2z
	 M441.3,425l48.6,19.1l-15.9,21.1l-32.7-13.1L441.3,425L441.3,425z M441.3,266.1l48.6,19.1L474,306.4l-32.7-13.1L441.3,266.1
	L441.3,266.1z M441.3,107l48.6,19.1L474,147.3l-32.7-13.1L441.3,107L441.3,107z M70.7,134.2l-32.7,13.1l-15.9-21.2l48.6-19.1
	L70.7,134.2z M70.7,293.3l-32.7,13.1l-15.9-21.2l48.6-19.1L70.7,293.3z M87.7,150V78.8c0.1-7.7,5-14.5,12.2-17.1
	C200.9,26,311,26,412,61.7c7.3,2.6,12.2,9.4,12.3,17.1V150c0,2.4-0.9,4.7-2.6,6.4c-1.7,1.7-4.1,2.7-6.5,2.6c-1,0.1-2.1-0.1-3.1-0.5
	c-101.3-34.2-211-34.2-312.3,0c-1,0.3-2,0.5-3,0.5c-2.4,0-4.7-1-6.5-2.6C88.6,154.7,87.7,152.4,87.7,150z M406.5,174.6l-0.1,26.4
	c-97.8-31.9-203.2-31.9-300.9,0v-26.4C203.1,141.7,308.9,141.7,406.5,174.6L406.5,174.6z M87.7,309v-71.2c0-7.6,4.9-14.4,12.1-16.9
	c0.2-0.1,0.4-0.2,0.6-0.3c100.9-35.6,210.8-35.5,311.7,0.2c7.3,2.5,12.2,9.4,12.2,17v71.2c0,2.4-0.9,4.8-2.7,6.5
	c-1.7,1.7-4,2.7-6.5,2.7c-1,0-2.1-0.1-3.1-0.5c-101.3-34.3-211-34.3-312.3,0c-1,0.3-2,0.5-3,0.5c-2.5,0.2-4.8-0.8-6.5-2.7
	C88.7,313.8,87.7,311.5,87.7,309z M406.5,333.8l-0.1,26.1c-97.8-31.8-203.1-31.8-300.9,0v-26.2C203.1,300.8,308.9,300.8,406.5,333.8
	L406.5,333.8z M99.9,379.7L99.9,379.7c101-35.6,211.1-35.6,312.1,0c7.3,2.5,12.2,9.4,12.2,17v71.3c0,2.9-1.4,5.7-3.8,7.3
	c-2.4,1.7-5.6,2.2-8.4,1.2c-101.2-34.3-211-34.3-312.2,0c-2.8,1-6,0.5-8.4-1.2c-2.4-1.7-3.8-4.4-3.8-7.3v-71.3
	C87.8,389.1,92.7,382.3,99.9,379.7z"/>
<path d="M300.4,390.6l1.8-16.9c-29.8-3.1-59.8-3.2-89.6-0.4l1.6,17C242.9,387.5,271.8,387.6,300.4,390.6z"/>
<path d="M400.2,76.9C353.7,61.2,305,53.2,256,53.2v17c47.2,0,94,7.7,138.7,22.8L400.2,76.9z"/>
</svg>
