<?xml version="1.0" encoding="utf-8"?>
<!-- Generator: Adobe Illustrator 23.1.0, SVG Export Plug-In . SVG Version: 6.00 Build 0)  -->
<svg version="1.1" id="Layer_1" xmlns="http://www.w3.org/2000/svg" xmlns:xlink="http://www.w3.org/1999/xlink" x="0px" y="0px"
	 viewBox="0 0 512 512" style="enable-background:new 0 0 512 512;" xml:space="preserve">
<style type="text/css">
	.st0{fill:#57565C;}
	.st1{fill:#059E8C;}
	.st2{fill:#057866;}
	.st3{fill:#898890;}
	.st4{fill:#CC7400;}
	.st5{fill:#FFBC00;}
	.st6{fill:#AA6100;}
	.st7{fill:#3D9AE2;}
	.st8{fill:#EE8700;}
</style>
<g id="Scooter">
	<path class="st0" d="M480,400c0,30.9-25.1,56-56,56s-56-25.1-56-56c0-8.8,2-17.4,6-25.2c5.5-3.9,10-9,13.4-14.8h75.8
		C473.9,370.5,480,384.9,480,400z"/>
	<path class="st0" d="M200,400c0,30.9-25.1,56-56,56s-56-25.1-56-56c0-5.4,0.8-10.8,2.3-16h107.4C199.2,389.2,200,394.6,200,400z"/>
	<path class="st1" d="M424,104v48c0,4.4-3.6,8-8,8h-56c-17.7,0-32-14.3-32-32s14.3-32,32-32h56C420.4,96,424,99.6,424,104z"/>
	<path class="st2" d="M55.4,283.8c-3.9,6-7.1,12.4-9.5,19.1h-0.1C44,303.6,42,304,40,304c-8.8,0-16-7.2-16-16c0-8.8,7.2-16,16-16
		C47.2,272,53.5,276.8,55.4,283.8z"/>
	<path class="st2" d="M232,352v32h-34.3H144H90.3H72v-32H232z"/>
	<path class="st2" d="M232,320v32H72c0-26.5,21.5-48,48-48h96C224.8,304,232,311.2,232,320z"/>
	<circle class="st3" cx="144" cy="400" r="16"/>
	<path class="st2" d="M264,240h-72v-32h64c8.8,0,16,7.2,16,16v16H264z"/>
	<path class="st1" d="M192,208v32H80c-8.8-0.1-15.9-7.2-16-16c0-8.8,7.2-16,16-16H192z"/>
	<path class="st2" d="M488,360H387.4c2.4-4.1,4.1-8.6,5.2-13.2L408,280C452.2,280,488,315.8,488,360z"/>
	<circle class="st3" cx="424" cy="400" r="16"/>
	<path class="st1" d="M408,280l-15.4,66.8c-1.1,4.6-2.8,9.1-5.2,13.2c-3.3,5.8-7.9,10.9-13.4,14.8c-8.2,6-18,9.2-28.2,9.2H232v-64
		c0-8.8-7.2-16-16-16h-96c-26.5,0-48,21.5-48,48v32H40v-48c0-11.3,2-22.5,5.8-33.1h0.1c2.4-6.7,5.6-13.1,9.5-19.1
		c7.2-11,16.6-20.5,27.5-27.8c15.7-10.4,34.2-16,53-16h128v112h64c17.7,0,32-14.3,32-32V160h32l2.2,16L408,280z"/>
	<path class="st2" d="M456,104v48h-8c-13.3,0-24-10.7-24-24s10.7-24,24-24H456z"/>
	<path class="st2" d="M364,120c6.6,0,12,5.4,12,12c0,6.6-5.4,12-12,12h-72c-6.6,0-12-5.4-12-12c0-6.6,5.4-12,12-12H364z"/>
	<path class="st4" d="M120,96h96v32h-96V96z"/>
	<path class="st5" d="M232,128v24c0,4.4-3.6,8-8,8H112c-4.4,0-8-3.6-8-8v-24H232z"/>
	<path class="st5" d="M232,80v16H104V80c0-14.6,9.9-27.3,24-31c2.6-0.7,5.3-1.1,8-1h64c2.7,0,5.4,0.3,8,1
		C222.1,52.7,232,65.4,232,80z"/>
	<path class="st6" d="M120,96h96v16h-96V96z"/>
	<path class="st7" d="M264,240v16H83c15.7-10.4,34.2-16,53-16H264z"/>
	<path class="st2" d="M394.2,176H360v-16h32L394.2,176z"/>
	<path class="st0" d="M16,448h480v16H16V448z"/>
	<path class="st8" d="M160,48h16v24h-16V48z"/>
	<path class="st8" d="M208,49v23h-16V48h8C202.7,48,205.4,48.3,208,49z"/>
	<path class="st8" d="M144,48v24h-16V49c2.6-0.7,5.3-1.1,8-1H144z"/>
	<g>
		<path class="st5" d="M48,48h32v16H48V48z"/>
		<path class="st5" d="M16,80h16v16H16V80z"/>
		<path class="st5" d="M48,80h32v16H48V80z"/>
	</g>
</g>
</svg>
