<?xml version="1.0" encoding="utf-8"?>
<!-- Generator: Adobe Illustrator 23.1.0, SVG Export Plug-In . SVG Version: 6.00 Build 0)  -->
<svg version="1.1" id="Capa_1" xmlns="http://www.w3.org/2000/svg" xmlns:xlink="http://www.w3.org/1999/xlink" x="0px" y="0px"
	 viewBox="0 0 448.8 448.8" style="enable-background:new 0 0 448.8 448.8;" xml:space="preserve">
<style type="text/css">
	.st0{fill:#E6B517;}
	.st1{fill:#349E60;}
	.st2{fill:#CC0019;}
	.st3{fill:#E8CC00;}
	.st4{fill:#A2712B;}
	.st5{fill:#CFCFCF;}
</style>
<g>
	<g id="XMLID_1_">
		<g>
			<path class="st0" d="M169.6,316.5c0.3,1.6,0,3.2-0.8,4.5c-0.9,1.4-2.2,2.3-3.8,2.6c-0.4,0.1-0.8,0.1-1.3,0.1
				c-2.8,0-5.3-2-5.9-4.8c-0.6-3.1,1.3-6.2,4.3-7c0.1,0,1.3-0.2,1.6-0.2C166.6,311.8,169.1,313.8,169.6,316.5z"/>
			<path class="st0" d="M168.1,285.2c2.7,12.6-1.8,15.6-7.2,16.9c-0.1,0-2.8,0.5-3.9,0.5c-7.8,0-14.6-5.6-16.2-13.2
				c-1.9-9,3.9-17.8,12.8-19.7c0.8-0.2,1.6-0.3,2.4-0.3C164,269.4,167.1,280.4,168.1,285.2z"/>
			<path class="st0" d="M166.1,236.6c2.8,13.5-0.8,18.8-14.8,21.8c-1.2,0.3-2.4,0.4-3.6,0.4c-11.6,0-18.6-13.5-21.1-25.1
				c-1.5-7.3-1.2-13.1,1-17.2c2.2-4.2,6.5-6.8,13.1-8.2c1-0.2,1.9-0.3,2.9-0.3C154.4,207.9,163.1,222.3,166.1,236.6z"/>
			<path class="st0" d="M141.9,157.2c1.4,3.3,1.7,7.9,0.8,13.5c-2.1,14-8.4,14-10.8,14c-0.7,0-1.5-0.1-2.4-0.2
				c-4.4-0.6-8.3-3-10.9-6.5c-2.7-3.6-3.8-7.9-3.1-12.3c1.2-8.1,8.2-14.2,16.4-14.2c0.8,0,1.6,0.1,2.4,0.2
				C138.2,152.2,140.6,153.9,141.9,157.2z"/>
			<path class="st0" d="M138,124.3c2.7,12.9-2.1,15.8-7.7,17c-1.1,0.2-2.3,0.4-3.4,0.4c-7.8,0-14.6-5.6-16.2-13.2
				c-1.9-9,3.9-17.8,12.8-19.7c0.8-0.2,1.6-0.3,2.4-0.3C133.9,108.4,137,119.5,138,124.3z"/>
			<path d="M181.2,374.2c0.6,2.7-1.2,5.4-3.9,5.9c-0.4,0.1-0.7,0.1-1,0.1c-2.3,0-4.4-1.6-4.9-4l-9-42.5c-6.9-0.7-12.7-5.8-14.2-12.6
				c-0.7-3.4-0.3-6.8,1.1-9.8c-9-2.8-16.1-10.3-18.2-19.9c-1.9-9.2,1.2-18.3,7.4-24.5c-10.3-4.3-18.3-15.6-21.6-31.2
				c-2-9.7-1.4-17.7,1.9-23.9c3-5.6,8-9.6,15-12l-1.1-5.1c-0.2,0-0.5,0-0.7,0c-1.2,0-2.5-0.1-3.8-0.3c-7-1-13.2-4.8-17.5-10.4
				c-4.2-5.7-6-12.7-5-19.8c0.9-6.3,4.1-11.8,8.6-15.9c-6.7-3.6-11.7-10.1-13.4-17.9c-2.4-11.3,2.8-22.5,12.2-28.2l-5.4-25.8
				c-0.6-2.7,1.2-5.4,3.9-5.9c2.7-0.6,5.4,1.2,5.9,3.9l5.1,24.4c1.1-0.2,2.2-0.3,3.3-0.3c10.8,0,18.7,8.6,21.9,23.7
				c1.6,7.3,1.3,13.2-0.8,17.9c-0.8,1.7-1.7,3.3-2.9,4.6c3.1,2,5.5,4.9,7,8.6c2.1,5,2.6,11.3,1.5,18.8c-1.6,10.9-5.7,16.7-10.3,19.7
				l1.3,6.1c8.2,0,15.7,4.4,21.8,12.6c4.8,6.4,8.5,15,10.4,24c2.9,13.7,0.1,22.9-8.9,28.6c5.2,3.9,9,10.7,10.9,20.1
				c1.3,6.4,2,16-3.7,22.6c2.6,2.2,4.5,5.3,5.2,8.8c0.9,4.2,0.1,8.5-2.3,12c-1.3,2-3.1,3.7-5.1,4.9L181.2,374.2z M168.8,321
				c0.9-1.3,1.2-2.9,0.8-4.5c-0.6-2.8-3-4.8-5.9-4.8c-0.3,0-1.5,0.2-1.6,0.2c-3,0.8-4.9,3.9-4.3,7c0.6,2.8,3.1,4.8,5.9,4.8
				c0.4,0,0.8,0,1.3-0.1C166.6,323.3,167.9,322.4,168.8,321z M160.9,302c5.4-1.2,9.9-4.3,7.2-16.9c-1-4.8-4.2-15.8-12.1-15.8
				c-0.8,0-1.5,0.1-2.4,0.3c-9,1.9-14.7,10.7-12.8,19.7c1.6,7.6,8.4,13.2,16.2,13.2C158.1,302.5,160.8,302.1,160.9,302z
				 M151.3,258.4c14.1-3,17.7-8.3,14.8-21.8c-3-14.2-11.7-28.6-22.5-28.6c-0.9,0-1.9,0.1-2.9,0.3c-6.6,1.4-10.9,4.1-13.1,8.2
				c-2.2,4.1-2.5,9.9-1,17.2c2.4,11.6,9.4,25.1,21.1,25.1C148.8,258.7,150,258.6,151.3,258.4z M142.8,170.7
				c0.8-5.5,0.5-10.2-0.8-13.5c-1.4-3.2-3.7-5-7.5-5.6c-0.8-0.1-1.6-0.2-2.4-0.2c-8.2,0-15.2,6.1-16.4,14.2
				c-0.6,4.4,0.5,8.8,3.1,12.3c2.6,3.6,6.5,5.9,10.9,6.5c0.8,0.1,1.6,0.2,2.4,0.2C134.4,184.7,140.7,184.7,142.8,170.7z
				 M130.4,141.2c5.6-1.2,10.4-4.1,7.7-17c-1-4.8-4.2-15.8-12.1-15.8c-0.8,0-1.5,0.1-2.4,0.3c-9,1.9-14.7,10.7-12.8,19.7
				c1.6,7.6,8.4,13.2,16.2,13.2C128.1,141.6,129.2,141.5,130.4,141.2z"/>
		</g>
		<g>
		</g>
	</g>
	<g id="XMLID_3_">
		<g>
			<path class="st0" d="M336.5,111.1c0.5,1.3,0.6,3.4,0.2,5.7c-0.8,4.7-2.1,4.7-2.9,4.7c-0.3,0-0.6,0-1-0.1
				c-3.2-0.5-5.4-3.6-4.9-6.8c0.5-2.9,2.9-5,5.9-5c0.3,0,0.6,0,1,0.1C335.8,109.8,336.2,110.1,336.5,111.1z"/>
			<path class="st0" d="M304.2,295.2c4.1,0.7,10.5,4.1,7.9,19.7c-1.1,6.6-3.1,13.3-10.5,13.3c-0.9,0-1.8-0.1-2.7-0.2
				c-4.4-0.7-8.2-3.1-10.8-6.7c-2.6-3.6-3.6-8-2.9-12.4c1.3-8.1,8.2-14,16.4-14C302.4,295,303.3,295.1,304.2,295.2z"/>
			<path class="st0" d="M324.3,245.6c2.2,6.6,2.7,15.1,1.4,23.5c-1.6,9.9-4.6,15.6-14.9,15.6c-2,0-4.3-0.2-6.8-0.6
				c-13.8-2.2-16.2-18.6-14.1-31.9c2.8-17.1,11.3-19,17.4-19c1.5,0,3.1,0.1,4.9,0.4C317.8,234.5,321.9,238.5,324.3,245.6z"/>
			<path class="st0" d="M331.6,197.2c0.6,2.3-2.1,7.1-4.8,11.8c-0.5,0.9-1,1.8-1.5,2.7c-3.7,6.6-7.6,9.9-11.6,9.9
				c-1.7,0-3.6-0.6-5.6-1.7c-8-4.5-10.8-14.7-6.3-22.6c2.2-3.9,7.4-6.1,13.9-6.1c4.6,0,9.3,1.2,12.9,3.2
				C329.8,194.9,331.3,196,331.6,197.2z"/>
			<path class="st0" d="M341.4,136.9c2.3,3.8,2.8,9.6,1.5,17.5c-2.1,13.1-10.3,27.2-19.9,27.2c-0.5,0-0.9,0-1.4-0.1
				c-8.9-1.4-14.2-16.3-11.6-32.4c1.9-12.1,7.8-18.2,17.4-18.2c1.3,0,2.6,0.1,3.9,0.3C336.2,132.1,339.5,133.9,341.4,136.9z"/>
			<path d="M349.9,131.7c3.6,5.9,4.6,13.9,2.9,24.3c-2.2,13.7-8.7,25.1-16.9,31.1c2.8,2.1,4.7,4.6,5.4,7.5
				c1.8,6.4-1.9,12.7-5.8,19.4c-0.5,0.9-1,1.7-1.5,2.6c-3,5.2-6.3,9.1-9.8,11.6c4.2,3.3,7.5,8.1,9.6,14.3c2.7,8.1,3.3,18.4,1.7,28.3
				c-1.4,8.6-4.7,19.6-16.6,23c0.8,1.2,1.4,2.5,1.9,3.9c2,5.1,2.4,11.7,1.2,19c-2.9,18-12.7,21.7-20.4,21.7c0,0,0,0,0,0l-4.9,30.6
				c-0.4,2.5-2.5,4.2-4.9,4.2c-0.3,0-0.5,0-0.8-0.1c-2.7-0.4-4.6-3-4.1-5.7l5-30.9c-4.7-1.9-8.8-5-11.8-9.2
				c-4.2-5.8-5.8-12.8-4.7-19.8c1.4-8.6,6.8-15.7,14.1-19.4c-9.2-8.3-11.7-23.2-9.4-37.4c2.6-16.1,10-23.2,17.8-25.9
				c-8.6-8.2-10.9-21.5-4.8-32.3c2.7-4.8,7.4-8.3,13.3-10c-5.8-8.2-8.4-20.9-6.1-34.8c2.7-16.8,11.6-23.1,19.1-25.4
				c-1.3-2.8-1.8-6-1.3-9.2c1.1-6.6,6-11.6,12.2-13l4.1-25.6c0.4-2.7,3-4.6,5.7-4.1c2.7,0.4,4.6,3,4.1,5.7l-4.1,25.1
				c2.6,1.3,4.5,3.5,5.6,6.4c1.2,3,1.4,6.7,0.7,10.9c-0.5,3.1-1.4,5.4-2.5,7.3C346.5,127.3,348.4,129.3,349.9,131.7z M342.9,154.4
				c1.3-7.9,0.8-13.8-1.5-17.5c-1.9-3-5.1-4.9-9.9-5.6c-1.3-0.2-2.7-0.3-3.9-0.3c-9.6,0-15.5,6.1-17.4,18.2
				c-2.6,16.1,2.7,31,11.6,32.4c0.4,0.1,0.9,0.1,1.4,0.1C332.6,181.6,340.8,167.5,342.9,154.4z M336.8,116.8
				c0.4-2.3,0.3-4.4-0.2-5.7c-0.3-0.9-0.8-1.3-1.8-1.4c-0.3,0-0.6-0.1-1-0.1c-2.9,0-5.4,2.1-5.9,5c-0.5,3.2,1.7,6.3,4.9,6.8
				c0.4,0.1,0.7,0.1,1,0.1C334.6,121.5,336,121.5,336.8,116.8z M326.9,209c2.7-4.6,5.4-9.4,4.8-11.8c-0.3-1.2-1.9-2.3-3.1-2.9
				c-3.6-2-8.3-3.2-12.9-3.2c-6.5,0-11.8,2.3-13.9,6.1c-4.5,8-1.7,18.1,6.3,22.6c2,1.1,3.9,1.7,5.6,1.7c4,0,7.9-3.3,11.6-9.9
				C325.8,210.8,326.3,209.9,326.9,209z M325.6,269.1c1.3-8.4,0.9-16.9-1.4-23.5c-2.4-7.1-6.5-11.1-12.1-12.1
				c-1.7-0.3-3.4-0.4-4.9-0.4c-6.1,0-14.6,2-17.4,19c-2.2,13.3,0.2,29.7,14.1,31.9c2.5,0.4,4.8,0.6,6.8,0.6
				C321.1,284.7,324,279,325.6,269.1z M312.1,315c2.5-15.6-3.9-19.1-7.9-19.7c-0.9-0.1-1.8-0.2-2.7-0.2c-8.2,0-15.1,5.9-16.4,14
				c-0.7,4.4,0.3,8.8,2.9,12.4c2.6,3.6,6.4,6,10.8,6.7c1,0.2,1.9,0.2,2.7,0.2C309,328.3,311.1,321.5,312.1,315z"/>
		</g>
		<g>
		</g>
	</g>
	<g id="XMLID_2_">
		<g>
			<path class="st1" d="M205.1,313.4c4.9-1.2,8.8-1.8,11.8-1.8c0.9,0,1.7,0.1,2.4,0.2c5,0.9,10.4-0.4,14.7-3.5
				c1.5-1.1,3.1-2.2,4.9-3.4c3.2-2.1,5.4-5.6,6-9.4c0.6-3.8-0.4-7.7-2.8-10.7c-2.6-3.3-6.6-5.3-10.9-5.3c-3.5,0-6.8,1.3-9.3,3.6
				l-3.5,3.2c-1.5,1.4-3.4,2.1-5.5,2.1c-2,0-3.9-0.7-5.4-2.1c-1.8-1.6-2.8-3.9-2.7-6.3c0.1-2.3,1.1-4.4,2.8-5.8
				c6.1-5,14.4-7.5,24.6-7.5h0.7c10.2,0.1,17.4,3.2,21.5,9.2c4.9,7.1,4.1,16.7,2.5,21c-2.7,7.2-12.2,20.8-28.7,21.1h-0.1
				C226.6,318.1,221.5,317.7,205.1,313.4C205.1,313.4,205.1,313.4,205.1,313.4L205.1,313.4z"/>
			<path class="st2" d="M243.3,199.9c0.1,2.4-0.9,4.7-2.7,6.3c-1.5,1.4-3.4,2.1-5.4,2.1c-2,0-4-0.8-5.5-2.1l-3.5-3.2
				c-2.6-2.3-5.9-3.6-9.3-3.6c-4.3,0-8.2,1.9-10.9,5.3c-2.4,3-3.4,6.9-2.8,10.7c0.6,3.8,2.8,7.2,6,9.3c4.5,3,8.3,5.9,10.9,8.3
				c1.7,1.5,4.2,1.7,6.1,0.5c0.6-0.4,3.5-1.3,8.1-1.3c2.1,0,5.3,0.2,8.8,1c-11.6,3-20,4.7-23.1,4.7h-0.1
				c-16.6-0.2-26-13.9-28.7-21.1c-1.6-4.3-2.4-13.9,2.5-21c4.1-6,11.4-9.1,21.5-9.2l0.7,0c10.3,0,18.6,2.5,24.6,7.5
				C242.3,195.5,243.3,197.6,243.3,199.9z"/>
			<path class="st3" d="M258.8,126.4c1.3,7.2-1.6,14.5-8.7,21.7c-7.4,7.6-15.2,11.8-23.2,12.6c-0.3,0-0.5,0-0.8,0
				c-1.1,0-2.1-0.2-3-0.6c-1-0.4-1.8-1-2.6-1.8c-1.6-1.6-2.4-3.8-2.3-6.1c0.2-4.2,3.5-7.5,7.7-7.7l4.8-0.2c3.8-0.2,7.4-1.9,9.9-4.9
				c2.5-2.9,3.6-6.8,3.2-10.6c-0.8-6.9-6.7-12.2-13.7-12.2c-0.9,0-1.8,0.1-2.7,0.3c-2.6,0.5-5,0.9-7.2,1.2c-4.8,0.7-9,3.4-11.3,7.4
				c-0.8,1.4-3.4,4.4-11.4,9.3c0,0,0,0,0,0c0,0,0,0,0,0c8.7-14.8,12-18.6,13-19.6c7-6.8,15.5-8.3,21.3-8.3c4.9,0,9.9,1,13.9,2.8
				C249.9,111.7,257.2,117.9,258.8,126.4z"/>
			<path d="M268.6,124.6c1.3,7.3,0.5,18.5-11.4,30.6c-8.4,8.6-17.6,13.7-27.1,15.2v7.7c6.4,1.6,12,4.3,16.8,8.2
				c4,3.3,6.3,8.1,6.4,13.3c0.1,5.3-2.1,10.4-6,13.9c-1.7,1.5-3.6,2.7-5.6,3.5c-2.1,0.8-4.3,1.2-6.5,1.2c-1.7,0-3.4-0.3-5.1-0.7v4.8
				c1.7-0.2,3.2-0.2,4.2-0.2c4.5,0,13.2,0.7,21.2,5.3c2.5,1.5,3.9,4.3,3.5,7.2c-0.4,2.9-2.5,5.3-5.3,6.1c-9.8,2.7-17.7,4.6-23.6,5.8
				v10.3c0.7,0,1.4,0,2,0h0.8c17,0.2,25.5,7.5,29.7,13.6c6.6,9.7,6.5,22.4,3.6,30.2c-4.8,12.7-18,26.4-36.1,27.5v43.3
				c0,2.8-2.2,5-5,5c-2.8,0-5-2.2-5-5v-44.2c-3.8-0.7-9.3-1.9-17.6-4c-4.5-1.2-7.6-5.1-7.5-9.8c0-4.7,3.1-8.6,7.6-9.7
				c5.6-1.4,10.4-2.1,14.2-2.1c1.2,0,2.3,0.1,3.3,0.2V297c-2.3,1-4.7,1.5-7.3,1.5c-4.5,0-8.8-1.7-12.1-4.7c-3.9-3.5-6.1-8.6-6-13.9
				c0.1-5.2,2.5-10.1,6.4-13.3c5.2-4.3,11.6-7.2,19-8.7v-10.1c-0.1,0-0.4,0-0.4,0c-19.1-0.3-33-14.5-37.9-27.6
				c-2.9-7.7-3-20.5,3.6-30.2c4.2-6.1,12.7-13.4,29.7-13.6l0.8,0c1.4,0,2.9,0.1,4.3,0.1v-7c-2.6-0.9-5-2.4-6.9-4.5
				c-3.4-3.6-5.2-8.5-5-13.5c0.4-7.5,5.2-13.7,11.9-16.1v-7.1c-1.1,0.4-2.1,1.2-2.6,2.1c-2.3,3.9-7.2,8.1-14.8,12.7
				c-1.6,1-3.4,1.5-5.2,1.5c-3.6,0-6.9-2-8.7-5.1c-1.8-3.1-1.8-6.9,0.1-10c10.4-17.5,13.6-20.7,14.7-21.7c5.3-5.2,11.1-8,16.6-9.5
				V65.9c0-2.8,2.2-5,5-5c2.8,0,5,2.2,5,5v31.1c0.6,0,1.1,0,1.7,0c6.3,0,12.7,1.3,18.1,3.7C257.4,104.1,266.5,113,268.6,124.6z
				 M250.1,148.1c7.1-7.3,10-14.6,8.7-21.7c-1.6-8.5-8.9-14.7-13.1-16.6c-4-1.8-9-2.8-13.9-2.8c-5.8,0-14.3,1.4-21.3,8.3
				c-1,1-4.3,4.8-13,19.6c0,0,0,0,0,0c0,0,0,0,0,0c8.1-4.9,10.6-7.9,11.4-9.3c2.4-4,6.5-6.7,11.3-7.4c2.2-0.3,4.6-0.7,7.2-1.2
				c0.9-0.2,1.8-0.3,2.7-0.3c7,0,12.9,5.2,13.7,12.2c0.4,3.8-0.7,7.7-3.2,10.6c-2.5,2.9-6.1,4.7-9.9,4.9l-4.8,0.2
				c-4.2,0.2-7.5,3.5-7.7,7.7c-0.1,2.3,0.7,4.4,2.3,6.1c0.8,0.8,1.6,1.4,2.6,1.8c0.9,0.4,2,0.6,3,0.6c0.3,0,0.5,0,0.8,0
				C234.9,160,242.7,155.7,250.1,148.1z M256.9,297c1.6-4.3,2.4-13.9-2.5-21c-4.1-6-11.4-9.1-21.5-9.2h-0.7
				c-10.3,0-18.6,2.5-24.6,7.5c-1.8,1.5-2.8,3.5-2.8,5.8c-0.1,2.4,0.9,4.7,2.7,6.3c1.5,1.3,3.4,2.1,5.4,2.1c2,0,4-0.8,5.5-2.1
				l3.5-3.2c2.5-2.3,5.9-3.6,9.3-3.6c4.3,0,8.2,1.9,10.9,5.3c2.4,3,3.4,6.9,2.8,10.7c-0.6,3.8-2.8,7.2-6,9.4
				c-1.7,1.2-3.4,2.3-4.9,3.4c-4.3,3.1-9.7,4.5-14.7,3.5c-0.7-0.1-1.5-0.2-2.4-0.2c-3,0-6.9,0.6-11.8,1.8h0c0,0,0,0,0,0
				c16.4,4.2,21.6,4.7,23,4.7h0.1C244.7,317.9,254.2,304.2,256.9,297z M240.6,206.1c1.8-1.6,2.8-3.9,2.7-6.3
				c-0.1-2.3-1.1-4.4-2.8-5.8c-6.1-5-14.4-7.5-24.6-7.5l-0.7,0c-10.2,0.1-17.4,3.2-21.5,9.2c-4.9,7.1-4.1,16.7-2.5,21
				c2.7,7.2,12.2,20.9,28.7,21.1h0.1c3.1,0,11.5-1.7,23.1-4.7c-3.5-0.9-6.7-1-8.8-1c-4.6,0-7.5,0.9-8.1,1.3c-1.9,1.2-4.4,1-6.1-0.5
				c-2.6-2.4-6.4-5.2-10.9-8.3c-3.2-2.1-5.4-5.5-6-9.3c-0.6-3.8,0.4-7.7,2.8-10.7c2.6-3.4,6.6-5.3,10.9-5.3c3.4,0,6.8,1.3,9.3,3.6
				l3.5,3.2c1.5,1.4,3.4,2.1,5.5,2.1C237.2,208.2,239.1,207.5,240.6,206.1z M235,294c0.2-1.1-0.1-2.1-0.8-3c-0.7-0.9-1.8-1.5-3-1.5
				c-0.3,0-0.7,0-1,0.2v9c1-0.7,2.1-1.5,3.2-2.2C234.2,296,234.8,295,235,294z M233,133c0.7-0.8,1-1.9,0.9-2.9
				c-0.2-1.9-1.9-3.3-3.8-3.4v7.7l0.2,0C231.4,134.3,232.3,133.8,233,133z M220.1,220.1v-9.2l-0.7-0.6c-0.9-0.8-1.9-1-2.6-1
				c-1.2,0-2.3,0.5-3,1.5c-0.7,0.8-0.9,1.9-0.8,3c0.2,1.1,0.8,2,1.7,2.6C216.7,217.6,218.5,218.8,220.1,220.1z"/>
		</g>
		<g>
		</g>
	</g>
	<g id="XMLID_4_">
		<g>
			<path d="M426.6,134.6c16.6,7.1,25.8,25.5,20.8,43.3c-2.2,7.9-6.4,11.9-12.5,11.9c-3.5,0-7-1.4-10.9-3.2l-3.6,13.1
				c-0.4,1.3-1.2,2.4-2.4,3c-0.8,0.4-1.6,0.6-2.5,0.6c-0.4,0-0.9-0.1-1.3-0.2l-6.2-1.7l-1.4,5.1c16.5,7.1,25.7,25.5,20.7,43.3
				c-2.2,7.9-6.4,11.9-12.5,11.9c-3.5,0-7-1.4-10.9-3.1l-3.6,13.1c-0.4,1.3-1.2,2.4-2.4,3c-0.8,0.4-1.6,0.6-2.5,0.6
				c-0.4,0-0.9-0.1-1.3-0.2l-6.2-1.7l-1.7,6.1c7.3,3.1,13.3,8.5,17.3,15.6c4.8,8.5,6,18.4,3.4,27.8c-2.2,7.9-6.4,11.9-12.5,11.9
				c-3.5,0-7-1.4-10.9-3.1l-3.6,13.1c-0.6,2.2-2.6,3.7-4.8,3.7c-0.4,0-0.9-0.1-1.3-0.2l-6.2-1.7l-10.3,37.3
				c-0.6,2.2-2.6,3.7-4.8,3.7c-0.4,0-0.9-0.1-1.3-0.2c-2.7-0.7-4.2-3.5-3.5-6.2l10.3-37.3l-6.1-1.7c-1.3-0.4-2.4-1.2-3-2.4
				c-0.6-1.1-0.8-2.5-0.5-3.8l3.6-13.1c-6.2-0.7-11.4-1.8-14.5-6.2c-2.3-3.3-2.6-7.7-1-13.4c4.4-15.8,18.9-26.8,35.2-26.8
				c1.6,0,3.3,0.1,4.9,0.3l1.7-6.1l-6.2-1.7c-1.3-0.4-2.4-1.2-3-2.4c-0.6-1.1-0.8-2.5-0.5-3.8l3.7-13.1c-6.2-0.7-11.5-1.8-14.5-6.2
				c-2.3-3.3-2.6-7.7-1-13.4c4.4-15.8,18.8-26.8,35.2-26.8c1.6,0,3.3,0.1,4.9,0.3l1.4-5.1l-6.2-1.7c-2.7-0.7-4.2-3.5-3.5-6.1
				l3.6-13.2c-6.2-0.7-11.5-1.8-14.5-6.2c-2.3-3.3-2.6-7.7-1-13.4c4.4-15.8,18.9-26.8,35.2-26.8c1.6,0,3.2,0.1,4.8,0.3l11.1-40
				c0.7-2.7,3.5-4.2,6.2-3.5c2.7,0.7,4.2,3.5,3.5,6.2L426.6,134.6z M437.8,175.3c3.9-14.1-4.4-28.8-18.5-32.7c-2.3-0.6-4.7-1-7.1-1
				c-11.9,0-22.4,8-25.6,19.5c-1.1,3.9-0.5,5-0.4,5.1c0.9,1.3,6.3,1.8,10.2,2.2c4.5,0.4,9.6,0.9,15,2.4c5.4,1.5,10,3.7,14.1,5.6
				c3.8,1.8,7.3,3.5,9.3,3.5C436,179.9,437,178.4,437.8,175.3z M417.8,247.4c3.9-14.1-4.4-28.8-18.5-32.7c-2.3-0.6-4.7-1-7.1-1
				c-11.9,0-22.4,8-25.6,19.5c-1.1,3.9-0.5,4.9-0.4,5.1c0.9,1.3,6.3,1.8,10.2,2.2c4.5,0.5,9.7,1,15,2.4c5.4,1.5,10,3.7,14.1,5.6
				c3.8,1.8,7.3,3.5,9.3,3.5C416,252.1,417,250.5,417.8,247.4z M412.2,192.4l2.7-9.9c-1.9-0.8-4-1.5-6.1-2.1c-2.1-0.6-4.2-1-6.3-1.3
				l-2.7,9.9L412.2,192.4z M397.5,320.6c1.9-6.8,1-14-2.5-20.2c-3.5-6.2-9.2-10.6-16-12.5c-2.3-0.6-4.7-1-7.1-1
				c-11.9,0-22.4,8-25.5,19.5c-1.1,3.9-0.5,4.9-0.4,5c0.9,1.3,6.3,1.8,10.2,2.2c4.5,0.5,9.6,1,15,2.4c5.4,1.5,10,3.7,14.1,5.6
				c3.8,1.8,7.3,3.5,9.3,3.5C395.7,325.2,396.7,323.7,397.5,320.6z M392.2,264.6l2.7-9.9c-1.9-0.8-4-1.6-6-2.1
				c-2.1-0.6-4.2-1-6.3-1.3l-2.7,9.9L392.2,264.6z M371.9,337.8l2.7-9.9c-1.9-0.8-4-1.6-6-2.1c-2.1-0.6-4.2-1-6.3-1.3l-2.7,9.9
				L371.9,337.8z"/>
			<path class="st4" d="M419.4,142.6c14.1,3.9,22.4,18.6,18.5,32.7c-0.8,3.1-1.8,4.6-2.8,4.6c-2,0-5.6-1.7-9.3-3.5
				c-4.1-1.9-8.8-4.2-14.1-5.6c-5.4-1.5-10.5-2-15-2.4c-4-0.4-9.4-0.9-10.2-2.2c-0.1-0.1-0.7-1.2,0.4-5.1
				c3.2-11.5,13.7-19.5,25.6-19.5C414.6,141.7,417,142,419.4,142.6z"/>
			<path class="st4" d="M399.3,214.8c14.1,3.9,22.4,18.6,18.5,32.7c-0.9,3.1-1.8,4.6-2.8,4.6c-2,0-5.6-1.7-9.3-3.5
				c-4.1-1.9-8.8-4.1-14.1-5.6c-5.4-1.5-10.5-2-15-2.4c-3.9-0.4-9.4-0.9-10.2-2.2c-0.1-0.1-0.7-1.2,0.4-5.1
				c3.2-11.5,13.7-19.5,25.6-19.5C394.6,213.8,397,214.1,399.3,214.8z"/>
			<path class="st4" d="M414.9,182.6l-2.7,9.9l-12.3-3.4l2.7-9.9c2.1,0.3,4.2,0.7,6.3,1.3C411,181,413,181.8,414.9,182.6z"/>
			<path class="st4" d="M395,300.5c3.5,6.2,4.4,13.3,2.5,20.2c-0.8,3.1-1.8,4.6-2.8,4.6c-2,0-5.6-1.7-9.3-3.5
				c-4.1-2-8.8-4.2-14.1-5.6c-5.4-1.5-10.5-2-15-2.4c-4-0.4-9.4-0.9-10.2-2.2c-0.1-0.1-0.7-1.2,0.4-5c3.2-11.5,13.7-19.5,25.5-19.5
				c2.4,0,4.8,0.3,7.1,1C385.9,289.9,391.6,294.3,395,300.5z"/>
			<path class="st4" d="M394.9,254.7l-2.7,9.9l-12.3-3.4l2.7-9.9c2.1,0.3,4.2,0.7,6.3,1.3C390.9,253.2,393,253.9,394.9,254.7z"/>
			<path class="st5" d="M374.6,327.9l-2.7,9.9l-12.3-3.4l2.7-9.9c2.1,0.3,4.2,0.7,6.3,1.3C370.6,326.3,372.7,327.1,374.6,327.9z"/>
		</g>
		<g>
		</g>
	</g>
	<g id="XMLID_5_">
		<g>
			<path class="st4" d="M96.2,325.2l3.4,9.7L87.5,339l-3.3-9.7c1.9-0.9,3.9-1.8,5.9-2.5C92.1,326.1,94.2,325.6,96.2,325.2z"/>
			<path d="M120.4,302.9c2,5.6,1.9,10-0.2,13.4c-2.7,4.6-7.9,6-14.1,7.1l4.5,12.9c0.9,2.6-0.5,5.5-3.1,6.4l-5.6,1.9l12.7,36.6
				c0.9,2.6-0.5,5.5-3.1,6.4c-0.5,0.2-1.1,0.3-1.6,0.3c-2.1,0-4-1.3-4.7-3.4l-12.7-36.6l-6.5,2.3c-0.5,0.2-1.1,0.3-1.6,0.3
				c-0.8,0-1.5-0.2-2.2-0.5c-1.2-0.6-2.1-1.6-2.5-2.9l-4.5-12.9c-2,1.1-4,2.1-5.8,2.8s-3.7,1.1-5.6,1.1c-5.7,0-9.8-3.8-12.4-11.2
				c-6-17.4,2-36.4,18-44.5l-2.1-6l-6,2.1c-0.5,0.2-1.1,0.3-1.6,0.3c-0.8,0-1.5-0.2-2.2-0.5c-1.2-0.6-2.1-1.6-2.5-2.9l-4.5-12.9
				c-2,1.1-4,2-5.8,2.7s-3.7,1.1-5.6,1.1c-5.7,0-9.8-3.8-12.4-11.2c-3.2-9.2-2.6-19.1,1.6-27.9c3.5-7.3,9.2-13,16.3-16.6l-1.7-5
				l-6,2.1c-0.5,0.2-1.1,0.3-1.6,0.3c-2.1,0-4-1.3-4.7-3.4l-4.5-12.9c-2,1.1-4,2-5.9,2.8c-1.9,0.7-3.7,1.1-5.6,1.1
				c-5.7,0-9.8-3.8-12.4-11.2C-4,166.9,4,148,19.9,139.8L6.3,100.3c-0.9-2.6,0.5-5.5,3.1-6.4c2.6-0.9,5.5,0.5,6.4,3.1l13.7,39.5
				c2.4-0.5,4.8-0.7,7.2-0.7c15.6,0,29.4,9.9,34.5,24.6c1.9,5.6,1.9,10-0.2,13.4c-2.7,4.6-7.9,6-14.1,7.1l4.5,12.9
				c0.4,1.3,0.3,2.6-0.2,3.8c-0.6,1.2-1.6,2.1-2.9,2.5l-6,2.1l1.7,5c2.4-0.5,4.7-0.7,7.1-0.7c15.5,0,29.4,9.9,34.5,24.6
				c1.9,5.6,1.9,10-0.2,13.4c-2.7,4.6-7.9,6-14.1,7.1l4.5,12.9c0.9,2.6-0.5,5.5-3.1,6.4l-6.1,2.1l2.1,6c2.4-0.5,4.7-0.7,7.1-0.7
				C101.4,278.3,115.3,288.2,120.4,302.9z M111.7,311.2c0.1-0.1,0.6-1.2-0.7-5c-3.7-10.7-13.8-17.9-25.1-17.9c-3,0-5.9,0.5-8.7,1.5
				c-13.8,4.8-21.2,19.9-16.4,33.8c0.5,1.3,1.7,4.4,3,4.4c1.9,0,5.7-2.1,9.3-4.1c4-2.2,8.5-4.7,13.7-6.5c5.3-1.8,10.4-2.6,14.8-3.4
				C105.5,313.4,110.9,312.5,111.7,311.2z M99.6,334.8l-3.4-9.7c-2.1,0.4-4.1,1-6.2,1.7c-2.1,0.7-4,1.6-5.9,2.5l3.3,9.7L99.6,334.8z
				 M86.8,239.4c0.1-0.1,0.6-1.2-0.7-5c-3.7-10.7-13.8-17.9-25.1-17.9c-3,0-5.9,0.5-8.7,1.5c-6.7,2.3-12.1,7.1-15.2,13.5
				c-3.1,6.4-3.5,13.6-1.2,20.3c0.5,1.3,1.7,4.4,2.9,4.4c1.9,0,5.7-2.1,9.3-4.1c4-2.2,8.5-4.7,13.7-6.5c5.3-1.8,10.3-2.6,14.8-3.4
				C80.7,241.6,86,240.8,86.8,239.4z M74.7,263.1l-3.4-9.7c-2,0.4-4.1,1-6.2,1.7c-2,0.7-4,1.6-5.9,2.5l3.3,9.7L74.7,263.1z
				 M62.3,168.7c0.1-0.1,0.6-1.2-0.7-5c-3.7-10.7-13.8-17.9-25.1-17.9c-2.9,0-5.9,0.5-8.7,1.5c-13.8,4.8-21.2,19.9-16.4,33.8
				c0.5,1.3,1.7,4.4,3,4.4c1.9,0,5.7-2.1,9.3-4.1c4-2.2,8.5-4.7,13.7-6.5c5.3-1.8,10.3-2.6,14.8-3.4C56.2,170.9,61.5,170,62.3,168.7
				z M50.2,192.3l-3.3-9.7c-2,0.4-4.1,1-6.2,1.7c-2,0.7-4,1.6-5.9,2.5l3.3,9.7L50.2,192.3z"/>
			<path class="st4" d="M111,306.2c1.3,3.8,0.8,4.9,0.7,5c-0.8,1.3-6.2,2.2-10.1,2.8c-4.5,0.7-9.6,1.5-14.8,3.4
				c-5.3,1.8-9.8,4.3-13.7,6.5c-3.6,2-7.3,4.1-9.3,4.1c-1.3,0-2.5-3.1-3-4.4c-4.8-13.8,2.6-29,16.4-33.8c2.8-1,5.7-1.5,8.7-1.5
				C97.2,288.3,107.3,295.5,111,306.2z"/>
			<path class="st4" d="M86.1,234.4c1.3,3.8,0.8,4.9,0.7,5c-0.8,1.3-6.2,2.2-10.1,2.8c-4.5,0.7-9.6,1.6-14.8,3.4
				c-5.3,1.8-9.8,4.3-13.7,6.5c-3.6,2-7.3,4.1-9.3,4.1c-1.3,0-2.5-3.1-2.9-4.4c-2.3-6.7-1.9-13.9,1.2-20.3
				c3.1-6.4,8.5-11.2,15.2-13.5c2.8-1,5.7-1.5,8.7-1.5C72.3,216.6,82.4,223.7,86.1,234.4z"/>
			<path class="st4" d="M71.4,253.4l3.4,9.7l-12.1,4.2l-3.3-9.7c1.9-0.9,3.9-1.8,5.9-2.5C67.2,254.4,69.3,253.9,71.4,253.4z"/>
			<path class="st4" d="M61.6,163.7c1.3,3.8,0.8,4.9,0.7,5c-0.8,1.3-6.2,2.2-10.1,2.8c-4.5,0.7-9.6,1.6-14.8,3.4
				c-5.3,1.8-9.8,4.3-13.7,6.5c-3.6,2-7.3,4.1-9.3,4.1c-1.3,0-2.5-3.1-3-4.4c-4.8-13.8,2.6-29,16.4-33.8c2.8-1,5.7-1.5,8.7-1.5
				C47.8,145.8,57.9,153,61.6,163.7z"/>
			<path class="st4" d="M46.9,182.7l3.3,9.7l-12.1,4.2l-3.3-9.7c1.9-0.9,3.9-1.8,5.9-2.5C42.7,183.6,44.8,183.1,46.9,182.7z"/>
		</g>
		<g>
		</g>
	</g>
</g>
</svg>
